[
    {
        "icon":"home",
        "name":"Menú principal",
        "redirectTo":"/menu"
    },
    {
        "icon":"settings",
        "name":"Configuración",
        "redirectTo":"/configuration"
    }
]